<?xml version="1.0" encoding="UTF-8"?>
<!-- Generator: Adobe Illustrator 18.1.1, SVG Export Plug-In . SVG Version: 6.00 Build 0)  -->
<svg version="1.0" id="Layer_1" xmlns="http://www.w3.org/2000/svg" xmlns:xlink="http://www.w3.org/1999/xlink" x="0px" y="0px" viewBox="0 0 128 128" enable-background="new 0 0 128 128" xml:space="preserve">
<g>
	<path fill="#1D1D1B" d="M26.856,95.699H14.715c-3.343,0-6.063-2.718-6.063-6.059V76.525c0-3.341,2.72-6.059,6.063-6.059h12.02   c0.838,0,1.593-0.382,2.068-1.048l30.288-40.385c5.212-6.903,13.494-11.019,22.162-11.019h8.267v-7.054   c0-2.455,1.443-4.663,3.678-5.624c0.149-0.064,0.305-0.119,0.462-0.163c2.244-0.649,4.682-0.079,6.231,1.459l19.674,19.681   c2.378,2.378,2.38,6.25,0.004,8.632l-19.67,19.672c-0.131,0.132-0.272,0.253-0.42,0.365c-1.241,0.927-2.518,1.377-3.901,1.377   c-0.492,0-1.513,0-2.571-0.524c-2.043-0.872-3.486-3.08-3.486-5.535v-7.054h-8.146c-0.838,0-1.593,0.384-2.071,1.052L49.017,84.678   C43.804,91.583,35.522,95.699,26.856,95.699z M16.4,87.951h10.456c6.25,0,12.221-2.966,15.972-7.932l30.226-40.301   c1.873-2.616,5.002-4.22,8.32-4.22h12.02c2.14,0,3.874,1.735,3.874,3.874v6.918l15.656-15.66L97.268,14.97v6.918   c0,2.14-1.735,3.874-3.874,3.874H81.252c-6.252,0-12.222,2.964-15.97,7.93L35.055,73.993c-1.865,2.614-4.996,4.22-8.32,4.22H16.4   V87.951z"/>
</g>
<g>
	<path fill="#1D1D1B" d="M37.298,51.143h-0.002c-0.611,0-1.186-0.289-1.551-0.779L30.403,43.2c-0.855-1.197-2.217-1.892-3.668-1.892   h-12.02c-2.276,0-4.126-1.848-4.126-4.122V24.071c0-2.272,1.85-4.12,4.126-4.12h12.141c8.064,0,15.768,3.829,20.608,10.24   l2.346,3.331c0.482,0.687,0.467,1.606-0.036,2.276l-10.927,14.57C38.482,50.856,37.907,51.143,37.298,51.143z M14.715,23.825   l-0.252,13.361l12.272,0.248c2.699,0,5.242,1.302,6.797,3.483l3.77,5.055L45.83,34.6l-1.496-2.128   c-4.073-5.395-10.622-8.647-17.478-8.647H14.715z"/>
</g>
<g>
	<path fill="#1D1D1B" d="M95.577,106.873c-0.373,0-1.065,0-1.721-0.331c-1.413-0.6-2.399-2.107-2.399-3.791v-8.989H81.252   c-8.063,0-15.766-3.829-20.608-10.242l-2.44-3.292c-0.509-0.689-0.507-1.631,0.008-2.315l10.927-14.57   c0.363-0.486,0.935-0.774,1.542-0.776c0.002,0,0.006,0,0.008,0c0.603,0,1.173,0.282,1.54,0.762l5.465,7.164   c0.882,1.23,2.211,1.909,3.681,1.909h10.083v-8.991c0-1.684,0.986-3.193,2.508-3.846c0.675-0.208,1.133-0.272,1.591-0.272   c1.16,0,2.213,0.416,2.97,1.169l19.668,19.67c1.597,1.6,1.597,4.3,0,5.896l-19.666,19.672   C97.748,106.308,96.844,106.873,95.577,106.873z M62.176,79.082l1.57,2.117c4.103,5.435,10.652,8.689,17.506,8.689h12.141   c1.071,0,1.937,0.866,1.937,1.937v10.927c0.038,0.015,0.233,0.314,0.269,0.333l-0.023-0.085c0.038,0,0.127,0,0.422-0.219   l19.456-19.49c0.093-0.095,0.093-0.325-0.002-0.42L95.788,63.203l-0.458,0.208V74.34c0,1.071-0.866,1.937-1.937,1.937h-12.02   c-2.696,0-5.236-1.302-6.797-3.481L70.7,67.715L62.176,79.082z"/>
</g>
</svg>